{
	"title" : "Dashboard",
	"sites" :
		{
			"Katana" : ["http://web.any.do"],
			"AGC5 Docs" : ["http://www.pcgamer.com/philips-bdm4065uc-monitor-review/"],
			"Stash" : ["http://jade-lang.com/reference/iteration"],
			"JIRA" : ["url4"],
			"Confluence" : ["url5"]
		}
}